{
  "01_00002_0": [
    8.877208948135376, 
    8.877195835113525, 
    8.65785002708435, 
    8.713361978530884, 
    8.746823072433472, 
    8.613697052001953, 
    8.719774961471558, 
    8.631495952606201, 
    8.795844078063965, 
    8.659467935562134
  ], 
  "01_00012_0": [
    6.278151988983154, 
    6.430286884307861, 
    7.668839931488037, 
    6.16290807723999, 
    6.023003101348877, 
    6.272181987762451, 
    6.797884941101074, 
    6.024868965148926, 
    6.611388921737671, 
    6.206881999969482
  ], 
  "01_00254_0": [
    6.1860511302948, 
    6.158428192138672, 
    6.101544141769409, 
    6.100305080413818, 
    6.141343116760254, 
    6.215674161911011, 
    5.9983229637146, 
    5.9088568687438965, 
    5.802038192749023, 
    6.509814977645874
  ], 
  "01_00266_0": [
    1.5601530075073242, 
    1.5090270042419434, 
    1.4617080688476562, 
    1.505383014678955, 
    1.538707971572876, 
    1.465820074081421, 
    2.673293113708496, 
    1.4446580410003662, 
    1.4417750835418701, 
    1.4901700019836426
  ], 
  "01_00408_0": [
    28.835351943969727, 
    30.07647705078125, 
    31.316215991973877, 
    34.956308126449585, 
    30.078306913375854, 
    33.8895480632782, 
    30.76723289489746, 
    28.6880099773407, 
    27.143390893936157, 
    28.309268951416016
  ], 
  "01_03236_0": [
    0.24257612228393555, 
    0.2261369228363037, 
    0.23262882232666016, 
    0.22413396835327148, 
    0.22718405723571777, 
    0.22165799140930176, 
    0.23163700103759766, 
    0.22523212432861328, 
    0.23537588119506836, 
    0.2376551628112793
  ], 
  "01_03281_0": [
    0.5194249153137207, 
    0.6660761833190918, 
    0.6659951210021973, 
    0.6408090591430664, 
    0.561722993850708, 
    0.5576629638671875, 
    0.513718843460083, 
    0.5456740856170654, 
    0.5326008796691895, 
    0.5471711158752441
  ], 
  "01_04203_0": [
    0.14526104927062988, 
    0.12864995002746582, 
    0.1213541030883789, 
    0.14467310905456543, 
    0.12624192237854004, 
    0.12816596031188965, 
    0.14932703971862793, 
    0.12366914749145508, 
    0.12647509574890137, 
    0.1281909942626953
  ], 
  "01_16004_0": [
    8.753368139266968, 
    7.984616994857788, 
    8.154405117034912, 
    8.19014596939087, 
    8.109366178512573, 
    8.010805130004883, 
    7.994269132614136, 
    8.047579050064087, 
    8.23341989517212, 
    8.308219909667969
  ], 
  "01_16222_0": [
    0.38468003273010254, 
    0.36965513229370117, 
    0.4334280490875244, 
    0.36982107162475586, 
    0.3600919246673584, 
    0.38112902641296387, 
    0.3891599178314209, 
    0.36142706871032715, 
    0.5062878131866455, 
    0.39038801193237305
  ], 
  "max": {
    "01_00002_0": 73.60316467285156, 
    "01_00012_0": 0.0012314317282289267, 
    "01_00254_0": 0.001145500224083662, 
    "01_00266_0": 1.0, 
    "01_00408_0": 103843.1484375, 
    "01_03236_0": 316.6069030761719, 
    "01_03281_0": 30334.880859375, 
    "01_04203_0": 0.004748071078211069, 
    "01_16004_0": 314.9315490722656, 
    "01_16222_0": 103903.21875
  }, 
  "min": {
    "01_00002_0": -55.314762115478516, 
    "01_00012_0": -9.41752809069385e-09, 
    "01_00254_0": 0.0, 
    "01_00266_0": -0.0007370734238065779, 
    "01_00408_0": 21165.244140625, 
    "01_03236_0": 191.73410034179688, 
    "01_03281_0": 13.56760025024414, 
    "01_04203_0": 0.0, 
    "01_16004_0": 196.98890686035156, 
    "01_16222_0": 94235.0859375
  }, 
  "size": {
    "01_00002_0": 152932620, 
    "01_00012_0": 69333035, 
    "01_00254_0": 70379111, 
    "01_00266_0": 15827130, 
    "01_00408_0": 556147323, 
    "01_03236_0": 4099705, 
    "01_03281_0": 10612371, 
    "01_04203_0": 1043792, 
    "01_16004_0": 123946687, 
    "01_16222_0": 7692685
  }
}