{
  "01_00002_0": [
    16.391467094421387, 
    16.241098880767822, 
    17.682832956314087, 
    16.70557999610901, 
    15.710668087005615, 
    16.84785485267639, 
    16.434243202209473, 
    16.59327483177185, 
    16.52406096458435, 
    16.547364950180054
  ], 
  "01_00012_0": [
    9.544953107833862, 
    9.302085161209106, 
    9.06709909439087, 
    8.714380979537964, 
    8.805155992507935, 
    9.285624980926514, 
    8.801429033279419, 
    10.016906976699829, 
    22.225813150405884, 
    20.065672874450684
  ], 
  "01_00254_0": [
    7.9185168743133545, 
    7.998105049133301, 
    8.147004127502441, 
    8.300004005432129, 
    8.153159141540527, 
    8.345255136489868, 
    8.467525005340576, 
    8.561765193939209, 
    8.528876066207886, 
    8.524569988250732
  ], 
  "01_00266_0": [
    2.4710628986358643, 
    2.513745069503784, 
    2.461108922958374, 
    2.3250608444213867, 
    2.446524143218994, 
    2.225167989730835, 
    2.4393279552459717, 
    2.5447800159454346, 
    2.32185697555542, 
    2.5955660343170166
  ], 
  "01_00408_0": [
    35.42285084724426, 
    38.93202996253967, 
    36.98166799545288, 
    34.55660104751587, 
    33.34266901016235, 
    33.548784017562866, 
    35.25889706611633, 
    33.57716393470764, 
    33.14419484138489, 
    32.925060987472534
  ], 
  "01_03236_0": [
    0.24433088302612305, 
    0.2279520034790039, 
    0.2401721477508545, 
    0.3669250011444092, 
    0.27861809730529785, 
    0.25218987464904785, 
    0.23749518394470215, 
    0.24535799026489258, 
    0.26888108253479004, 
    0.2782769203186035
  ], 
  "01_03281_0": [
    0.5057990550994873, 
    0.5575900077819824, 
    0.5199239253997803, 
    0.5313999652862549, 
    0.586158037185669, 
    0.5252368450164795, 
    0.5413789749145508, 
    0.563417911529541, 
    0.5401821136474609, 
    0.528203010559082
  ], 
  "01_04203_0": [
    0.3074018955230713, 
    0.12982416152954102, 
    0.14440488815307617, 
    0.2555239200592041, 
    0.24211597442626953, 
    0.17199993133544922, 
    0.13328194618225098, 
    0.12999296188354492, 
    0.13369989395141602, 
    0.14270997047424316
  ], 
  "01_16004_0": [
    12.561235904693604, 
    13.645058870315552, 
    13.846182107925415, 
    14.211889028549194, 
    14.899383068084717, 
    14.765027046203613, 
    13.995378017425537, 
    14.347048044204712, 
    13.833242893218994, 
    13.939820051193237
  ], 
  "01_16222_0": [
    0.33049917221069336, 
    0.3466529846191406, 
    0.4055368900299072, 
    0.3340420722961426, 
    0.3483569622039795, 
    0.4288480281829834, 
    0.3295722007751465, 
    0.33603501319885254, 
    0.3400759696960449, 
    0.37180519104003906
  ], 
  "max": {
    "01_00002_0": 143.125, 
    "01_00012_0": 0.001439213752746582, 
    "01_00254_0": 0.001467585563659668, 
    "01_00266_0": 1.0, 
    "01_00408_0": 103906.125, 
    "01_03236_0": 316.75, 
    "01_03281_0": 30427.0, 
    "01_04203_0": 0.004856109619140625, 
    "01_16004_0": 315.125, 
    "01_16222_0": 103904.0
  }, 
  "min": {
    "01_00002_0": -105.0, 
    "01_00012_0": 0.0, 
    "01_00254_0": 0.0, 
    "01_00266_0": 0.0, 
    "01_00408_0": 0.25, 
    "01_03236_0": 191.625, 
    "01_03281_0": 11.0, 
    "01_04203_0": 0.0, 
    "01_16004_0": 146.25, 
    "01_16222_0": 94229.0
  }, 
  "size": {
    "01_00002_0": 300196725, 
    "01_00012_0": 94841448, 
    "01_00254_0": 59997706, 
    "01_00266_0": 26294256, 
    "01_00408_0": 704161588, 
    "01_03236_0": 3919553, 
    "01_03281_0": 9740373, 
    "01_04203_0": 1053972, 
    "01_16004_0": 223043369, 
    "01_16222_0": 7125742
  }
}