{
  "01_00002_0": [
    25.009737014770508, 
    25.09985089302063, 
    26.83432102203369, 
    26.873401165008545, 
    26.598154067993164, 
    26.209497928619385, 
    26.611901998519897, 
    26.294498920440674, 
    26.322603940963745, 
    26.838279008865356
  ], 
  "01_00012_0": [
    13.265416145324707, 
    13.486762046813965, 
    14.729176998138428, 
    14.894054174423218, 
    15.016340017318726, 
    14.809535026550293, 
    15.251325845718384, 
    14.910234928131104, 
    14.7988600730896, 
    14.621034145355225
  ], 
  "01_00254_0": [
    13.616891145706177, 
    13.7116379737854, 
    13.659581899642944, 
    13.479749917984009, 
    13.330235004425049, 
    13.626387119293213, 
    15.247453927993774, 
    13.244902849197388, 
    13.48833680152893, 
    13.255484104156494
  ], 
  "01_00266_0": [
    5.7204859256744385, 
    5.765259027481079, 
    5.699678182601929, 
    5.802618980407715, 
    5.743977069854736, 
    6.55549693107605, 
    5.7360289096832275, 
    5.7337260246276855, 
    5.72330379486084, 
    5.796549081802368
  ], 
  "01_00408_0": [
    21.63520908355713, 
    22.02163290977478, 
    22.19980812072754, 
    22.497349977493286, 
    23.811326026916504, 
    25.701672077178955, 
    28.085924863815308, 
    25.26848006248474, 
    26.447012186050415, 
    25.805169820785522
  ], 
  "01_03236_0": [
    0.9712989330291748, 
    0.7269508838653564, 
    0.7896339893341064, 
    0.7210409641265869, 
    0.7203447818756104, 
    0.7809910774230957, 
    0.7465670108795166, 
    1.081341028213501, 
    0.771010160446167, 
    0.7380039691925049
  ], 
  "01_03281_0": [
    0.8137609958648682, 
    0.7636439800262451, 
    0.8967630863189697, 
    1.5558359622955322, 
    0.7827250957489014, 
    0.7594411373138428, 
    0.8736429214477539, 
    0.778954029083252, 
    0.7703371047973633, 
    0.7818222045898438
  ], 
  "01_04203_0": [
    1.0526070594787598, 
    0.5313069820404053, 
    0.7400510311126709, 
    0.741387128829956, 
    0.76180100440979, 
    0.7771949768066406, 
    0.7457950115203857, 
    0.7223341464996338, 
    0.7507767677307129, 
    0.6205911636352539
  ], 
  "01_16004_0": [
    23.472237825393677, 
    28.54557204246521, 
    25.103095054626465, 
    25.056802988052368, 
    24.115753173828125, 
    26.960266828536987, 
    24.887682914733887, 
    23.469629049301147, 
    25.33436107635498, 
    22.495315074920654
  ], 
  "01_16222_0": [
    0.6732299327850342, 
    0.6314589977264404, 
    0.7476468086242676, 
    0.72170090675354, 
    0.7907750606536865, 
    0.8390209674835205, 
    0.7059769630432129, 
    0.8292410373687744, 
    0.7243978977203369, 
    0.7548229694366455
  ], 
  "max": {
    "01_00002_0": 73.60316467285156, 
    "01_00012_0": 0.0012314317282289267, 
    "01_00254_0": 0.001145500224083662, 
    "01_00266_0": 1.0, 
    "01_00408_0": 103843.1484375, 
    "01_03236_0": 316.6069030761719, 
    "01_03281_0": 30334.880859375, 
    "01_04203_0": 0.004748071078211069, 
    "01_16004_0": 314.9315490722656, 
    "01_16222_0": 103903.21875
  }, 
  "min": {
    "01_00002_0": -55.314762115478516, 
    "01_00012_0": -9.41752809069385e-09, 
    "01_00254_0": 0.0, 
    "01_00266_0": -0.0007370734238065779, 
    "01_00408_0": 21165.244140625, 
    "01_03236_0": 191.73410034179688, 
    "01_03281_0": 13.56760025024414, 
    "01_04203_0": 0.0, 
    "01_16004_0": 196.98890686035156, 
    "01_16222_0": 94235.0859375
  }, 
  "size": {
    "01_00002_0": 569127008, 
    "01_00012_0": 199370119, 
    "01_00254_0": 170076255, 
    "01_00266_0": 87481678, 
    "01_00408_0": 376493438, 
    "01_03236_0": 11035829, 
    "01_03281_0": 16453619, 
    "01_04203_0": 4901438, 
    "01_16004_0": 385220585, 
    "01_16222_0": 10556653
  }
}