{
  "01_00002_0": [
    8.183674097061157, 
    8.256831169128418, 
    8.241739988327026, 
    8.241783857345581, 
    8.240574836730957, 
    8.141913175582886, 
    8.124948024749756, 
    8.194205045700073, 
    8.686897039413452, 
    9.457707166671753
  ], 
  "01_00012_0": [
    5.632077217102051, 
    6.373342990875244, 
    6.081402063369751, 
    5.832750082015991, 
    5.457930088043213, 
    5.518793821334839, 
    5.6585869789123535, 
    6.303931951522827, 
    5.753103017807007, 
    5.935155153274536
  ], 
  "01_00254_0": [
    5.565732002258301, 
    5.61381196975708, 
    5.548850059509277, 
    6.657600164413452, 
    5.689481019973755, 
    6.103589057922363, 
    5.8594419956207275, 
    5.64339804649353, 
    6.037169933319092, 
    6.728960037231445
  ], 
  "01_00266_0": [
    1.3494529724121094, 
    1.3490779399871826, 
    1.3742749691009521, 
    1.4439339637756348, 
    1.3823151588439941, 
    1.498892068862915, 
    1.6564440727233887, 
    1.6290419101715088, 
    1.5590109825134277, 
    1.5055909156799316
  ], 
  "01_00408_0": [
    19.406517028808594, 
    22.40045714378357, 
    22.97934103012085, 
    23.814970016479492, 
    27.747912883758545, 
    27.980451822280884, 
    22.224792957305908, 
    29.90466809272766, 
    31.093071937561035, 
    26.58064579963684
  ], 
  "01_03236_0": [
    0.5575149059295654, 
    0.23765301704406738, 
    0.2572507858276367, 
    0.2653188705444336, 
    0.2362689971923828, 
    0.24246597290039062, 
    0.2543959617614746, 
    0.24550795555114746, 
    0.24338984489440918, 
    0.24536585807800293
  ], 
  "01_03281_0": [
    0.44387197494506836, 
    0.4108250141143799, 
    0.42302393913269043, 
    0.4221649169921875, 
    0.4167637825012207, 
    0.4412870407104492, 
    0.430433988571167, 
    0.455808162689209, 
    0.41770100593566895, 
    0.4404270648956299
  ], 
  "01_04203_0": [
    0.3250699043273926, 
    0.10629796981811523, 
    0.10183095932006836, 
    0.10196805000305176, 
    0.1035161018371582, 
    0.10419392585754395, 
    0.10190820693969727, 
    0.10396289825439453, 
    0.10576701164245605, 
    0.10498595237731934
  ], 
  "01_16004_0": [
    8.605719089508057, 
    9.58693814277649, 
    9.56880784034729, 
    10.262196779251099, 
    9.734110116958618, 
    10.368304967880249, 
    9.784908056259155, 
    10.503839015960693, 
    9.362380981445312, 
    9.19213604927063
  ], 
  "01_16222_0": [
    0.41530895233154297, 
    0.415679931640625, 
    0.43877696990966797, 
    0.41746997833251953, 
    0.3652160167694092, 
    0.36162400245666504, 
    0.35370302200317383, 
    0.3564319610595703, 
    0.7270491123199463, 
    0.6353240013122559
  ], 
  "max": {
    "01_00002_0": 73.60316467285156, 
    "01_00012_0": 0.0012314317282289267, 
    "01_00254_0": 0.001145500224083662, 
    "01_00266_0": 1.0, 
    "01_00408_0": 103843.1484375, 
    "01_03236_0": 316.6069030761719, 
    "01_03281_0": 30334.880859375, 
    "01_04203_0": 0.004748071078211069, 
    "01_16004_0": 314.9315490722656, 
    "01_16222_0": 103903.21875
  }, 
  "min": {
    "01_00002_0": -55.314762115478516, 
    "01_00012_0": -9.41752809069385e-09, 
    "01_00254_0": 0.0, 
    "01_00266_0": -0.0007370734238065779, 
    "01_00408_0": 21165.244140625, 
    "01_03236_0": 191.73410034179688, 
    "01_03281_0": 13.56760025024414, 
    "01_04203_0": 0.0, 
    "01_16004_0": 196.98890686035156, 
    "01_16222_0": 94235.0859375
  }, 
  "size": {
    "01_00002_0": 128077538, 
    "01_00012_0": 57182688, 
    "01_00254_0": 61028672, 
    "01_00266_0": 15826791, 
    "01_00408_0": 382404687, 
    "01_03236_0": 3407176, 
    "01_03281_0": 9307386, 
    "01_04203_0": 868209, 
    "01_16004_0": 102738317, 
    "01_16222_0": 5652479
  }
}