{
  "01_00002_0": [
    2.752547025680542, 
    3.6629879474639893, 
    3.9640870094299316, 
    5.9193220138549805, 
    4.056930065155029, 
    3.709326982498169, 
    3.3730051517486572, 
    3.319222927093506, 
    3.3597590923309326, 
    3.7602829933166504
  ], 
  "01_00012_0": [
    2.325407028198242, 
    3.6696481704711914, 
    3.3315231800079346, 
    2.87640118598938, 
    3.639965057373047, 
    3.0729949474334717, 
    3.586529016494751, 
    3.1980130672454834, 
    3.0938520431518555, 
    3.3818118572235107
  ], 
  "01_00254_0": [
    2.042351007461548, 
    3.4799580574035645, 
    3.5191919803619385, 
    3.2465789318084717, 
    3.3792128562927246, 
    3.3565289974212646, 
    3.1064400672912598, 
    3.3473050594329834, 
    3.2297210693359375, 
    3.2366750240325928
  ], 
  "01_00266_0": [
    1.0485491752624512, 
    1.5332231521606445, 
    1.3894381523132324, 
    1.7363529205322266, 
    2.0198581218719482, 
    1.5381369590759277, 
    1.6249492168426514, 
    1.5984141826629639, 
    1.7663459777832031, 
    1.5602400302886963
  ], 
  "01_00408_0": [
    3.158669948577881, 
    5.2148919105529785, 
    5.231884002685547, 
    5.164052963256836, 
    5.271852016448975, 
    4.596144199371338, 
    4.927340984344482, 
    5.295667886734009, 
    4.058290004730225, 
    5.059578895568848
  ], 
  "01_03236_0": [
    0.08317899703979492, 
    0.07223010063171387, 
    0.1074979305267334, 
    0.15854096412658691, 
    0.22121000289916992, 
    0.10125088691711426, 
    0.2292628288269043, 
    0.13231396675109863, 
    0.1355609893798828, 
    0.18577194213867188
  ], 
  "01_03281_0": [
    0.08628702163696289, 
    0.07769298553466797, 
    0.0754690170288086, 
    0.08654093742370605, 
    0.08472514152526855, 
    0.28363895416259766, 
    0.11081099510192871, 
    0.05383920669555664, 
    0.12561798095703125, 
    0.1841590404510498
  ], 
  "01_04203_0": [
    0.6985518932342529, 
    0.22781586647033691, 
    0.08139991760253906, 
    0.2384939193725586, 
    0.30152082443237305, 
    0.22233319282531738, 
    0.08262801170349121, 
    0.3404200077056885, 
    0.09020590782165527, 
    0.25258708000183105
  ], 
  "01_16004_0": [
    2.7459781169891357, 
    3.9264819622039795, 
    3.877711057662964, 
    4.086310148239136, 
    3.899777889251709, 
    4.042041063308716, 
    4.193159103393555, 
    3.5998599529266357, 
    3.7832140922546387, 
    3.6517789363861084
  ], 
  "01_16222_0": [
    0.2628300189971924, 
    0.0878911018371582, 
    0.12562990188598633, 
    0.19021010398864746, 
    0.08127999305725098, 
    0.13451004028320312, 
    0.41765809059143066, 
    0.1556110382080078, 
    0.11644196510314941, 
    0.09715795516967773
  ], 
  "max": {
    "01_00002_0": 143.125, 
    "01_00012_0": 0.001439213752746582, 
    "01_00254_0": 0.001467585563659668, 
    "01_00266_0": 1.0, 
    "01_00408_0": 103906.125, 
    "01_03236_0": 316.75, 
    "01_03281_0": 30427.0, 
    "01_04203_0": 0.004856109619140625, 
    "01_16004_0": 315.125, 
    "01_16222_0": 103904.0
  }, 
  "min": {
    "01_00002_0": -105.0, 
    "01_00012_0": 0.0, 
    "01_00254_0": 0.0, 
    "01_00266_0": 0.0, 
    "01_00408_0": 0.25, 
    "01_03236_0": 191.625, 
    "01_03281_0": 11.0, 
    "01_04203_0": 0.0, 
    "01_16004_0": 146.25, 
    "01_16222_0": 94229.0
  }, 
  "size": {
    "01_00002_0": 1493463023, 
    "01_00012_0": 1514696657, 
    "01_00254_0": 1514696627, 
    "01_00266_0": 509636367, 
    "01_00408_0": 1514696417, 
    "01_03236_0": 21255193, 
    "01_03281_0": 21255195, 
    "01_04203_0": 21254956, 
    "01_16004_0": 1493463022, 
    "01_16222_0": 21255021
  }
}