{
  "01_00002_0": [
    19.357295989990234, 
    18.365648984909058, 
    18.4218590259552, 
    19.926751136779785, 
    22.9690580368042, 
    19.908711910247803, 
    19.550339937210083, 
    19.185784101486206, 
    18.91775417327881, 
    20.521479845046997
  ], 
  "01_00012_0": [
    11.60926604270935, 
    12.217550039291382, 
    13.945918083190918, 
    12.8473379611969, 
    12.371535062789917, 
    12.429816961288452, 
    12.3212308883667, 
    12.853070974349976, 
    13.039997100830078, 
    12.532979011535645
  ], 
  "01_00254_0": [
    10.684010982513428, 
    11.0154869556427, 
    11.79158902168274, 
    12.36863899230957, 
    11.24906587600708, 
    11.775500059127808, 
    10.442008018493652, 
    10.083418130874634, 
    10.9893159866333, 
    11.387756109237671
  ], 
  "01_00266_0": [
    4.546910047531128, 
    5.081315994262695, 
    4.767547845840454, 
    4.675222158432007, 
    4.545536041259766, 
    4.587537050247192, 
    4.50492787361145, 
    4.480257987976074, 
    4.484017848968506, 
    4.362807989120483
  ], 
  "01_00408_0": [
    26.235674142837524, 
    26.30329990386963, 
    26.421042919158936, 
    26.87571883201599, 
    25.95297598838806, 
    25.510848999023438, 
    25.71373701095581, 
    25.899394989013672, 
    26.855756998062134, 
    26.693955898284912
  ], 
  "01_03236_0": [
    0.6311130523681641, 
    0.5532660484313965, 
    0.5225560665130615, 
    0.6231350898742676, 
    0.4207038879394531, 
    0.49144911766052246, 
    0.6215028762817383, 
    0.6728229522705078, 
    0.5175468921661377, 
    0.3725008964538574
  ], 
  "01_03281_0": [
    0.6497821807861328, 
    0.6842150688171387, 
    0.5761909484863281, 
    0.6220548152923584, 
    0.5956840515136719, 
    0.6310341358184814, 
    0.6787991523742676, 
    0.5769960880279541, 
    0.5744647979736328, 
    0.6946539878845215
  ], 
  "01_04203_0": [
    0.4969151020050049, 
    0.24585390090942383, 
    0.25411105155944824, 
    0.14119505882263184, 
    0.2591969966888428, 
    0.14297103881835938, 
    0.14379000663757324, 
    0.13910388946533203, 
    0.24895381927490234, 
    0.14182400703430176
  ], 
  "01_16004_0": [
    26.787458896636963, 
    17.26903009414673, 
    19.48497200012207, 
    17.32967519760132, 
    16.392763137817383, 
    17.21736192703247, 
    18.430387020111084, 
    15.786107063293457, 
    15.878044128417969, 
    17.113770961761475
  ], 
  "01_16222_0": [
    0.38358497619628906, 
    0.39052391052246094, 
    0.48159217834472656, 
    0.39530301094055176, 
    0.42359089851379395, 
    0.4996500015258789, 
    0.42444515228271484, 
    0.42072200775146484, 
    0.3764350414276123, 
    0.39499688148498535
  ], 
  "max": {
    "01_00002_0": 143.125, 
    "01_00012_0": 0.001439213752746582, 
    "01_00254_0": 0.001467585563659668, 
    "01_00266_0": 1.0, 
    "01_00408_0": 103906.125, 
    "01_03236_0": 316.75, 
    "01_03281_0": 30427.0, 
    "01_04203_0": 0.004856109619140625, 
    "01_16004_0": 315.125, 
    "01_16222_0": 103904.0
  }, 
  "min": {
    "01_00002_0": -105.0, 
    "01_00012_0": 0.0, 
    "01_00254_0": 0.0, 
    "01_00266_0": 0.0, 
    "01_00408_0": 0.25, 
    "01_03236_0": 191.625, 
    "01_03281_0": 11.0, 
    "01_04203_0": 0.0, 
    "01_16004_0": 146.25, 
    "01_16222_0": 94229.0
  }, 
  "size": {
    "01_00002_0": 271687021, 
    "01_00012_0": 105509163, 
    "01_00254_0": 75705593, 
    "01_00266_0": 35004984, 
    "01_00408_0": 438497301, 
    "01_03236_0": 3419817, 
    "01_03281_0": 9200937, 
    "01_04203_0": 1356023, 
    "01_16004_0": 207517892, 
    "01_16222_0": 5758840
  }
}