{
  "01_00002_0": [
    22.060168981552124, 
    23.5673189163208, 
    23.31004309654236, 
    26.652333974838257, 
    24.228703022003174, 
    27.150606870651245, 
    24.848033905029297, 
    25.82281804084778, 
    26.307809114456177, 
    24.45569109916687
  ], 
  "01_00012_0": [
    11.525732040405273, 
    11.248152017593384, 
    11.941586971282959, 
    14.462164163589478, 
    12.033412218093872, 
    11.573365926742554, 
    11.58472204208374, 
    12.013928890228271, 
    11.946099996566772, 
    11.888836860656738
  ], 
  "01_00254_0": [
    11.314748048782349, 
    11.204380989074707, 
    11.265788078308105, 
    10.756224870681763, 
    10.804625988006592, 
    11.170943975448608, 
    11.537544965744019, 
    10.962030172348022, 
    10.769790172576904, 
    11.055470943450928
  ], 
  "01_00266_0": [
    5.863512992858887, 
    6.149855852127075, 
    7.94891095161438, 
    6.586664915084839, 
    6.5816330909729, 
    8.332371950149536, 
    7.979959011077881, 
    7.708027124404907, 
    7.595897912979126, 
    7.480086088180542
  ], 
  "01_00408_0": [
    54.511353969573975, 
    43.28414511680603, 
    44.01441407203674, 
    43.49642491340637, 
    61.985514879226685, 
    109.15601897239685, 
    113.98662495613098, 
    116.29655289649963, 
    117.24816298484802, 
    114.16966795921326
  ], 
  "01_03236_0": [
    0.3040909767150879, 
    0.29768896102905273, 
    0.29760098457336426, 
    0.30315494537353516, 
    0.30540895462036133, 
    0.3025319576263428, 
    0.3388237953186035, 
    0.3082578182220459, 
    0.307589054107666, 
    0.31536006927490234
  ], 
  "01_03281_0": [
    0.4495279788970947, 
    0.5078680515289307, 
    0.4499378204345703, 
    0.5798130035400391, 
    0.9732720851898193, 
    0.455639123916626, 
    0.4855680465698242, 
    0.5141241550445557, 
    0.4684600830078125, 
    0.5413169860839844
  ], 
  "01_04203_0": [
    0.4937121868133545, 
    0.4479808807373047, 
    0.44797587394714355, 
    0.4685781002044678, 
    0.4403190612792969, 
    0.42398691177368164, 
    0.3599691390991211, 
    0.43198680877685547, 
    0.4239640235900879, 
    0.447979211807251
  ], 
  "01_16004_0": [
    53.41535401344299, 
    54.627792835235596, 
    32.459381103515625, 
    21.855515003204346, 
    21.685126066207886, 
    21.673007011413574, 
    21.73833703994751, 
    21.716453075408936, 
    21.98228120803833, 
    23.14813494682312
  ], 
  "01_16222_0": [
    0.43494105339050293, 
    0.39818811416625977, 
    0.405778169631958, 
    0.4807319641113281, 
    0.8197109699249268, 
    0.47363805770874023, 
    0.35652780532836914, 
    0.46146106719970703, 
    0.7491250038146973, 
    1.0253479480743408
  ], 
  "max": {
    "01_00002_0": 143.125, 
    "01_00012_0": 0.001439213752746582, 
    "01_00254_0": 0.001467585563659668, 
    "01_00266_0": 1.0, 
    "01_00408_0": 103906.125, 
    "01_03236_0": 316.75, 
    "01_03281_0": 30427.0, 
    "01_04203_0": 0.004856109619140625, 
    "01_16004_0": 315.125, 
    "01_16222_0": 103904.0
  }, 
  "min": {
    "01_00002_0": -105.0, 
    "01_00012_0": 0.0, 
    "01_00254_0": 0.0, 
    "01_00266_0": 0.0, 
    "01_00408_0": 0.25, 
    "01_03236_0": 191.625, 
    "01_03281_0": 11.0, 
    "01_04203_0": 0.0, 
    "01_16004_0": 146.25, 
    "01_16222_0": 94229.0
  }, 
  "size": {
    "01_00002_0": 241344699, 
    "01_00012_0": 74117917, 
    "01_00254_0": 51288605, 
    "01_00266_0": 24513861, 
    "01_00408_0": 423934334, 
    "01_03236_0": 3094336, 
    "01_03281_0": 8507374, 
    "01_04203_0": 745464, 
    "01_16004_0": 168529044, 
    "01_16222_0": 5297608
  }
}